de/lennox/rcontrol/service/GpioService.class
de/lennox/rcontrol/console/command/CommandRegistry.class
de/lennox/rcontrol/RControl.class
de/lennox/rcontrol/console/command/commands/CommandLED.class
de/lennox/rcontrol/console/command/Command.class
de/lennox/rcontrol/console/ConsoleThread.class
de/lennox/rcontrol/service/DiscoThread.class
de/lennox/rcontrol/service/GpioService$GpioState.class
